…
MrTrashData
```

    ## # A tibble: 453 × 14
    ##    dumpster month  year date                weight_tons volume_cubic_yards
    ##       <dbl> <chr> <dbl> <dttm>                    <dbl>              <dbl>
    ##  1        1 May    2014 2014-05-16 00:00:00        4.31                 18
    ##  2        2 May    2014 2014-05-16 00:00:00        2.74                 13
    ##  3        3 May    2014 2014-05-16 00:00:00        3.45                 15
    ##  4        4 May    2014 2014-05-17 00:00:00        3.1                  15
    ##  5        5 May    2014 2014-05-17 00:00:00        4.06                 18
    ##  6        6 May    2014 2014-05-20 00:00:00        2.71                 13
    ##  7        7 May    2014 2014-05-21 00:00:00        1.91                  8
    ##  8        8 May    2014 2014-05-28 00:00:00        3.7                  16
    ##  9        9 June   2014 2014-06-05 00:00:00        2.52                 14
    ## 10       10 June   2014 2014-06-11 00:00:00        3.76                 18
    ## # … with 443 more rows, and 8 more variables: plastic_bottles <dbl>,
    ## #   polystyrene <dbl>, cigarette_butts <dbl>, glass_bottles <dbl>,
    ## #   grocery_bags <dbl>, chip_bags <dbl>, sports_balls <dbl>,
    ## #   homes_powered <dbl>
…
Combine precipitation datasets and convert month to a character variable

``` r
combined_prcp =
  bind_rows(prcp_2018,prcp_2019) %>% 
  mutate(
    month = month.name[month]
  ) 
combined_prcp
```

    ## # A tibble: 24 × 3
    ##    year  month     total
    ##    <chr> <chr>     <dbl>
    ##  1 2018  January    0.94
    ##  2 2018  February   4.8 
    ##  3 2018  March      2.69
    ##  4 2018  April      4.69
    ##  5 2018  May        9.27
    ##  6 2018  June       4.77
    ##  7 2018  July      10.2 
    ##  8 2018  August     6.45
    ##  9 2018  September 10.5 
    ## 10 2018  October    2.12
    ## # … with 14 more rows
…
pols_month
```

    ## # A tibble: 822 × 9
    ##    year  month     gov_gop sen_gop rep_gop gov_dem sen_dem rep_dem president
    ##    <chr> <chr>       <dbl>   <dbl>   <dbl>   <dbl>   <dbl>   <dbl> <chr>    
    ##  1 1947  January        23      51     253      23      45     198 dem      
    ##  2 1947  February       23      51     253      23      45     198 dem      
    ##  3 1947  March          23      51     253      23      45     198 dem      
    ##  4 1947  April          23      51     253      23      45     198 dem      
    ##  5 1947  May            23      51     253      23      45     198 dem      
    ##  6 1947  June           23      51     253      23      45     198 dem      
    ##  7 1947  July           23      51     253      23      45     198 dem      
    ##  8 1947  August         23      51     253      23      45     198 dem      
    ##  9 1947  September      23      51     253      23      45     198 dem      
    ## 10 1947  October        23      51     253      23      45     198 dem      
    ## # … with 812 more rows
…
snp
```

    ## # A tibble: 787 × 4
    ##    year  month day   close
    ##    <chr> <chr> <chr> <dbl>
    ##  1 7     1     15    2080.
    ##  2 6     1     15    2063.
    ##  3 5     1     15    2107.
    ##  4 4     1     15    2086.
    ##  5 3     2     15    2068.
    ##  6 2     2     15    2104.
    ##  7 1     2     15    1995.
    ##  8 12    1     14    2059.
    ##  9 11    3     14    2068.
    ## 10 10    1     14    2018.
    ## # … with 777 more rows
…
    ## Rows: 68 Columns: 13

    ## ── Column specification ────────────────────────────────────────────────────────
    ## Delimiter: ","
    ## dbl (13): Year, Jan, Feb, Mar, Apr, May, Jun, Jul, Aug, Sep, Oct, Nov, Dec

    ## 
    ## ℹ Use `spec()` to retrieve the full column specification for this data.
    ## ℹ Specify the column types or set `show_col_types = FALSE` to quiet this message.

``` r
unemploy
```

    ## # A tibble: 816 × 3
    ##     Year month     unemployment
    ##    <dbl> <chr>            <dbl>
    ##  1  1948 January            3.4
    ##  2  1948 February           3.8
    ##  3  1948 March              4  
    ##  4  1948 April              3.9
    ##  5  1948 May                3.5
    ##  6  1948 June               3.6
    ##  7  1948 July               3.6
    ##  8  1948 August             3.9
    ##  9  1948 September          3.8
    ## 10  1948 October            3.7
    ## # … with 806 more rows
